Satellite day @FBN: ggplot2-Plotting Anything
…
You could also type this:

dat <- agridat::crampton.pig

Some data wrangling

I like to use the tidy way of data processing. Therefore I suggest to convert the data table into a tibble. We also convert columns into factors.

dat <- as_tibble(dat) |> 
  mutate_at(vars(treatment, 
                 rep), ~as.factor(.))

dat

# A tibble: 50 × 5
   treatment rep   weight1  feed weight2
   <fct>     <fct>   <int> <int>   <int>
 1 T1        R1         30   674     195
 2 T1        R2         21   628     177
 3 T1        R3         21   661     180
 4 T1        R4         33   694     200
 5 T1        R5         27   713     197
 6 T1        R6         24   585     170
 7 T1        R7         20   575     150
 8 T1        R8         29   638     180
 9 T1        R9         28   632     192
10 T1        R10        26   637     184
# ℹ 40 more rows
…
